{
  "projectType": "library",
  "root": "libs/weather-forecast/feature-daily",
  "sourceRoot": "libs/weather-forecast/feature-daily/src",
  "prefix": "nx-test",
  "targets": {
    "test": {
      "executor": "@nrwl/jest:jest",
      "outputs": ["coverage/libs/weather-forecast/feature-daily"],
      "options": {
        "jestConfig": "libs/weather-forecast/feature-daily/jest.config.js",
        "passWithNoTests": true
      }
    },
    "lint": {
      "executor": "@nrwl/linter:eslint",
      "options": {
        "lintFilePatterns": [
          "libs/weather-forecast/feature-daily/src/**/*.ts",
          "libs/weather-forecast/feature-daily/src/**/*.html"
        ]
      }
    }
  },
  "tags": []
}
